<?xml version="1.0" encoding="utf-8"?>
<!-- Generator: Adobe Illustrator 14.0.0, SVG Export Plug-In . SVG Version: 6.00 Build 43363)  -->
<!DOCTYPE svg PUBLIC "-//W3C//DTD SVG 1.1//EN" "http://www.w3.org/Graphics/SVG/1.1/DTD/svg11.dtd">
<svg version="1.1" id="Layer_1" xmlns="http://www.w3.org/2000/svg" xmlns:xlink="http://www.w3.org/1999/xlink" x="0px" y="0px"
	 width="334.334px" height="356px" viewBox="0 0 334.334 356" enable-background="new 0 0 334.334 356" xml:space="preserve">
<g>
	<polygon points="166.334,82.665 203.334,171.999 267.001,171.999 203.334,0 130.667,0 67.334,171.999 132.334,171.999 	"/>
	<polygon points="270.668,184 198,184 167.082,267.968 136,184 63.333,184 0,356 65,356 99,266.666 135.294,354.294 134.667,356 
		136,356 199.668,356 233.668,266.666 270.668,356 334.334,356 	"/>
</g>
</svg>
